^E:\mi\tailieu\Cocos\Flappy\cocos2d\cocos\2d\libcocos2d.vcxproj
E:\mi\tailieu\Cocos\Flappy\proj.win32\Release.win32\libcocos2d.lib
E:\mi\tailieu\Cocos\Flappy\proj.win32\Release.win32\libcocos2d.exp
